First look at data
…
print(sorted_correlations, n = 10)

# A tibble: 56 × 4
   space_variable                project_variable abs_cor marginally_significant
   <chr>                         <chr>              <dbl> <lgl>                 
 1 avg_pages_allspaces_per_sess… avg_pages_allpr…  0.826  TRUE                  
 2 avg_pages_bedroom_per_session avg_pages_upgra…  0.406  TRUE                  
 3 avg_pages_allspaces_per_sess… avg_pages_upgra…  0.370  TRUE                  
 4 avg_pages_kitchen_per_session avg_pages_renov…  0.209  TRUE                  
 5 avg_pages_allspaces_per_sess… avg_pages_renov…  0.159  TRUE                  
 6 avg_pages_homeoffice_per_ses… avg_pages_renov…  0.150  TRUE                  
 7 avg_pages_allspaces_per_sess… avg_pages_repla…  0.0990 TRUE                  
 8 avg_pages_bedroom_per_session avg_pages_allpr…  0.0940 TRUE                  
 9 avg_pages_livingroom_per_ses… avg_pages_renov…  0.0868 TRUE                  
10 avg_pages_livingroom_per_ses… avg_pages_allpr…  0.0849 TRUE                  
# ℹ 46 more rows
…
This reduced dataset now has ncol(X) columns.

There is, however, still a chance that we are keeping highly collinear variables, We therefore do a quick check of the pairwise correlations among all pairs and print the top correlations:

print(get_pairwise_correlations(X), n = 30)

# A tibble: 561 × 3
   row                               column                            abs_cor
   <chr>                             <chr>                               <dbl>
 1 number_of_unique_project_type     number_of_submited_forms            0.894
 2 if_visited_marketing_domain_flag  avg_pages_allprojects_per_session   0.590
 3 avg_page_visit_per_session        number_of_unique_page_views         0.582
 4 number_of_hour_1_6_events         number_of_stationary_sessions       0.535
 5 number_of_hour_19_24_events       number_of_stationary_sessions       0.502
 6 number_of_hour_13_18_events       number_of_stationary_sessions       0.471
 7 number_of_hour_7_12_events        number_of_stationary_sessions       0.438
 8 number_of_unique_space_type       number_of_submited_forms            0.418
 9 avg_page_visit_per_session        if_returning_customer               0.378
10 number_of_moday_events            number_of_stationary_sessions       0.375
11 avg_pages_allprojects_per_session avg_page_visit_per_session          0.374
12 number_of_friday_events           number_of_stationary_sessions       0.366
13 if_returning_customer             number_of_mobile_sessions           0.362
14 number_of_unique_space_type       number_of_unique_project_type       0.356
15 number_of_saturday_events         number_of_stationary_sessions       0.340
16 number_of_thursday_events         number_of_stationary_sessions       0.340
17 avg_pages_upgrading_per_session   number_of_clicked_banners           0.340
18 number_of_tuesday_events          number_of_stationary_sessions       0.333
19 number_of_sunday_events           number_of_stationary_sessions       0.332
20 number_of_wednesday_events        number_of_stationary_sessions       0.304
21 number_of_hour_19_24_events       number_of_sunday_events             0.284
22 number_of_unique_page_views       number_of_clicked_banners           0.283
23 number_of_hour_19_24_events       number_of_hour_1_6_events           0.275
24 if_visited_marketing_domain_flag  avg_pages_upgrading_per_session     0.270
25 number_of_hour_7_12_events        number_of_thursday_events           0.259
26 number_of_hour_1_6_events         number_of_friday_events             0.256
27 number_of_hour_7_12_events        number_of_moday_events              0.254
28 number_of_hour_1_6_events         number_of_saturday_events           0.251
29 number_of_hour_19_24_events       number_of_saturday_events           0.249
30 number_of_hour_13_18_events       number_of_friday_events             0.233
# ℹ 531 more rows
…
